{
  "project_info": {
    "project_number": "906164390641",
    "firebase_url": "https://fir-poc-4fdc4.firebaseio.com",
    "project_id": "fir-poc-4fdc4",
    "storage_bucket": "fir-poc-4fdc4.appspot.com"
  },
  "client": [
    {
      "client_info": {
        "mobilesdk_app_id": "1:906164390641:android:902e48ba0778f1d3",
        "android_client_info": {
          "package_name": "com.cinco.estrelas.app"
        }
      },
      "oauth_client": [
        {
          "client_id": "906164390641-auusk6vu6r1tp39t4dhm4lcpoqe1vi47.apps.googleusercontent.com",
          "client_type": 3
        }
      ],
      "api_key": [
        {
          "current_key": "AIzaSyA9abaBFOYID1WWgqXv6gxn5zdfIz4KM4w"
        }
      ],
      "services": {
        "analytics_service": {
          "status": 1
        },
        "appinvite_service": {
          "status": 1,
          "other_platform_oauth_client": []
        },
        "ads_service": {
          "status": 2
        }
      }
    },
    {
      "client_info": {
        "mobilesdk_app_id": "1:906164390641:android:dec74c2a49f26b73",
        "android_client_info": {
          "package_name": "com.firebase.poc"
        }
      },
      "oauth_client": [
        {
          "client_id": "906164390641-auusk6vu6r1tp39t4dhm4lcpoqe1vi47.apps.googleusercontent.com",
          "client_type": 3
        }
      ],
      "api_key": [
        {
          "current_key": "AIzaSyA9abaBFOYID1WWgqXv6gxn5zdfIz4KM4w"
        }
      ],
      "services": {
        "analytics_service": {
          "status": 1
        },
        "appinvite_service": {
          "status": 1,
          "other_platform_oauth_client": []
        },
        "ads_service": {
          "status": 2
        }
      }
    }
  ],
  "configuration_version": "1"
}