<svg xmlns="http://www.w3.org/2000/svg" width="24" height="24" viewBox="0 0 24 24">
  <title>Categories_Services</title>
  <g id="Layer_2" data-name="Layer 2">
    <g id="Icons_Categories" data-name="Icons Categories">
      <g id="Services">
        <path id="Filled_Icons" data-name="Filled Icons" d="M17.053,14.681A3.726,3.726,0,0,1,21.7,19.65a.417.417,0,0,1-.684.127l-1.471-1.529h-1.3v1.3l1.529,1.472a.417.417,0,0,1-.127.684,3.633,3.633,0,0,1-4.051-.8,3.73,3.73,0,0,1-.9-3.845l-2.107-2.1,2.362-2.367ZM6.947,9.319A3.725,3.725,0,0,1,2.3,4.351a.416.416,0,0,1,.684-.127L4.455,5.753h1.3v-1.3L4.224,2.984A.417.417,0,0,1,4.35,2.3,3.633,3.633,0,0,1,8.4,3.1a3.731,3.731,0,0,1,.9,3.845l2.1,2.1L9.045,11.412Zm2.372,7.734A3.725,3.725,0,0,1,4.35,21.7a.417.417,0,0,1-.127-.684l1.529-1.471v-1.3h-1.3L2.984,19.776A.417.417,0,0,1,2.3,19.65,3.633,3.633,0,0,1,3.1,15.6a3.733,3.733,0,0,1,3.845-.9l7.735-7.75A3.726,3.726,0,0,1,19.65,2.3a.417.417,0,0,1,.127.684L18.248,4.455v1.3h1.3l1.471-1.529a.417.417,0,0,1,.684.127A3.632,3.632,0,0,1,20.9,8.4a3.729,3.729,0,0,1-3.845.9Z" fill="#fff"/>
        <rect id="invisible_shape" data-name="invisible shape" width="24" height="24" fill="none"/>
      </g>
    </g>
  </g>
</svg>
