<svg xmlns="http://www.w3.org/2000/svg" width="24" height="24" viewBox="0 0 24 24">
  <title>Categories_Technology</title>
  <g id="Layer_2" data-name="Layer 2">
    <g id="Icons_Categories" data-name="Icons Categories">
      <g id="Technology">
        <path id="Filled_Icons" data-name="Filled Icons" d="M14.8,1H9.2A4.168,4.168,0,0,0,5,5.125V19.792A3.241,3.241,0,0,0,8.267,23h7.467A3.241,3.241,0,0,0,19,19.792V5.125A4.168,4.168,0,0,0,14.8,1ZM10.133,2.833h3.733a.458.458,0,1,1,0,.917H10.133a.458.458,0,1,1,0-.917ZM9.667,20.25H8.733v-.917h.933Zm0-1.833H8.733V17.5h.933Zm0-1.833H8.733v-.917h.933Zm2.8,3.667h-.933v-.917h.933Zm0-1.833h-.933V17.5h.933Zm0-1.833h-.933v-.917h.933Zm2.8,3.667h-.933v-.917h.933Zm0-1.833h-.933V17.5h.933Zm0-1.833h-.933v-.917h.933Zm1.867-3.208a.463.463,0,0,1-.467.458H7.333a.463.463,0,0,1-.467-.458V5.125a.463.463,0,0,1,.467-.458h9.333a.463.463,0,0,1,.467.458Z" fill="#fff"/>
        <rect id="invisible_shape" data-name="invisible shape" width="24" height="24" fill="none"/>
      </g>
    </g>
  </g>
</svg>
