<svg xmlns="http://www.w3.org/2000/svg" width="24" height="24" viewBox="0 0 24 24">
  <title>Categories_Beauty</title>
  <g id="Layer_2" data-name="Layer 2">
    <g id="Icons_Categories" data-name="Icons Categories">
      <g id="Beauty">
        <path id="Filled_Icons" data-name="Filled Icons" d="M23.236,16.921,10.122,3.652a3.983,3.983,0,0,0-5.766.064L.436,7.862A1.621,1.621,0,0,0,.46,10.1a1.527,1.527,0,0,0,2.163-.025L5.681,6.839l.3,0,.578.585L2.994,11.189A.54.54,0,0,0,3,11.934a.5.5,0,0,0,.721-.007L7.285,8.159l.743.752L4.453,12.664a.539.539,0,0,0,.005.745.5.5,0,0,0,.358.152A.5.5,0,0,0,5.18,13.4L8.758,9.649l.719.726L5.91,14.139a.539.539,0,0,0,.007.745.5.5,0,0,0,.721-.007l3.567-3.764.74.747L7.369,15.614a.539.539,0,0,0,.005.745.5.5,0,0,0,.721,0L11.674,12.6l.705.715L8.823,17.091a.542.542,0,0,0,.009.746.5.5,0,0,0,.722-.011l3.554-3.775.586.594,0,.309-3.059,3.234a1.621,1.621,0,0,0,.021,2.237,1.528,1.528,0,0,0,2.164-.024l3.059-3.234.3,0L19.673,20.7a2.488,2.488,0,0,0,3.6-.04A2.716,2.716,0,0,0,23.236,16.921Z" fill="#fff"/>
        <rect id="invisible_shape" data-name="invisible shape" width="24" height="24" fill="none"/>
      </g>
    </g>
  </g>
</svg>
