<?xml version="1.0" encoding="utf-8"?>
<!-- Generator: Adobe Illustrator 22.0.0, SVG Export Plug-In . SVG Version: 6.00 Build 0)  -->
<svg version="1.1" id="Camada_1" xmlns="http://www.w3.org/2000/svg" xmlns:xlink="http://www.w3.org/1999/xlink" x="0px" y="0px"
	 viewBox="0 0 130 80" style="enable-background:new 0 0 130 80;" xml:space="preserve">
<style type="text/css">
	.st0{fill:#2FAE74;}
	.st1{filter:url(#Adobe_OpacityMaskFilter);}
	.st2{fill:#FFFFFF;}
	.st3{mask:url(#b_1_);}
	.st4{fill:#E77002;}
</style>
<g>
	<path id="a_1_" class="st0" d="M4.8,72c-0.1-4,0.3-8.5,3.1-11.7c2.9-3.3,7.3-3.5,11.3-2.5c2.1,0.5,1.2,3.7-0.9,3.1
		c-3.3-0.8-6.5-0.8-8.4,2.3c-1.6,2.6-1.8,5.8-1.7,8.8c0.1,0.1,0.2,0.1,0.2,0.2c0.9,1,2.1,1.6,3,2.6c1,1.1-0.6,2.7-1.7,1.6
		c-0.5-0.5-1.1-1-1.7-1.4c0.2,1.3,0.2,2.6,0.2,3.9c0,1.5-2.4,1.5-2.4,0c0-0.9,0-1.9-0.1-2.8C5.2,77,4.5,77.9,4,78.8
		c-0.8,1.3-2.8,0.1-2-1.1c0.7-1.1,1.5-2.1,2.2-3.2c-0.8,0.3-1.5,0.7-2.1,1.3c-1,1.1-2.7-0.5-1.7-1.6C1.5,73,3.1,72.2,4.8,72z
		 M124.7,70.5c1.7,0.2,3.3,1,4.5,2.2c1,1.1-0.6,2.7-1.7,1.6c-0.6-0.6-1.3-1.1-2.1-1.3c0.8,1.1,1.5,2.1,2.2,3.2
		c0.8,1.3-1.3,2.4-2,1.1c-0.6-0.9-1.2-1.8-1.9-2.7c-0.1,0.9-0.1,1.8-0.1,2.8c0,1.5-2.4,1.5-2.4,0c0-1.3,0-2.6,0.2-3.9
		c-0.6,0.5-1.2,0.9-1.7,1.4c-1,1.1-2.7-0.5-1.7-1.6c0.9-1,2.1-1.6,3-2.6c0.1-0.1,0.2-0.1,0.2-0.2c0.1-3-0.1-6.2-1.7-8.8
		c-1.9-3.1-5.2-3.1-8.4-2.3c-2.1,0.5-3-2.6-0.9-3.1c4.1-1,8.5-0.9,11.3,2.5C124.4,62,124.8,66.4,124.7,70.5z M83,12c2.2,0,4,1.8,4,4
		c0,2.1-1.8,4-4,4c-2.1,0-4-1.9-4-4C79,13.8,80.9,12,83,12z M49.8,0L52,3l-12.8,8L37,8L49.8,0z M79,3l2.2-3L94,8l-2.2,3L79,3z
		 M52,16c0,2.1-1.9,4-4.1,4c-2,0-3.9-1.9-3.9-4c0-2.2,1.9-4,3.9-4C50.1,12,52,13.8,52,16z M65.8,40c13.7,0,17.8,11.8,17.8,11.8
		s-5.9-3.9-17.8-3.9S48,51.8,48,51.8S52.1,40,65.8,40z"/>
</g>
<defs>
	<filter id="Adobe_OpacityMaskFilter" filterUnits="userSpaceOnUse" x="0" y="0" width="130" height="80">
		<feColorMatrix  type="matrix" values="1 0 0 0 0  0 1 0 0 0  0 0 1 0 0  0 0 0 1 0"/>
	</filter>
</defs>
<mask maskUnits="userSpaceOnUse" x="0" y="0" width="130" height="80" id="b_1_">
	<g class="st1">
		<path id="a_2_" class="st2" d="M4.8,72c-0.1-4,0.3-8.5,3.1-11.7c2.9-3.3,7.3-3.5,11.3-2.5c2.1,0.5,1.2,3.7-0.9,3.1
			c-3.3-0.8-6.5-0.8-8.4,2.3c-1.6,2.6-1.8,5.8-1.7,8.8c0.1,0.1,0.2,0.1,0.2,0.2c0.9,1,2.1,1.6,3,2.6c1,1.1-0.6,2.7-1.7,1.6
			c-0.5-0.5-1.1-1-1.7-1.4c0.2,1.3,0.2,2.6,0.2,3.9c0,1.5-2.4,1.5-2.4,0c0-0.9,0-1.9-0.1-2.8C5.2,77,4.5,77.9,4,78.8
			c-0.8,1.3-2.8,0.1-2-1.1c0.7-1.1,1.5-2.1,2.2-3.2c-0.8,0.3-1.5,0.7-2.1,1.3c-1,1.1-2.7-0.5-1.7-1.6C1.5,73,3.1,72.2,4.8,72z
			 M124.7,70.5c1.7,0.2,3.3,1,4.5,2.2c1,1.1-0.6,2.7-1.7,1.6c-0.6-0.6-1.3-1.1-2.1-1.3c0.8,1.1,1.5,2.1,2.2,3.2
			c0.8,1.3-1.3,2.4-2,1.1c-0.6-0.9-1.2-1.8-1.9-2.7c-0.1,0.9-0.1,1.8-0.1,2.8c0,1.5-2.4,1.5-2.4,0c0-1.3,0-2.6,0.2-3.9
			c-0.6,0.5-1.2,0.9-1.7,1.4c-1,1.1-2.7-0.5-1.7-1.6c0.9-1,2.1-1.6,3-2.6c0.1-0.1,0.2-0.1,0.2-0.2c0.1-3-0.1-6.2-1.7-8.8
			c-1.9-3.1-5.2-3.1-8.4-2.3c-2.1,0.5-3-2.6-0.9-3.1c4.1-1,8.5-0.9,11.3,2.5C124.4,62,124.8,66.4,124.7,70.5z M83,12
			c2.2,0,4,1.8,4,4c0,2.1-1.8,4-4,4c-2.1,0-4-1.9-4-4C79,13.8,80.9,12,83,12z M49.8,0L52,3l-12.8,8L37,8L49.8,0z M79,3l2.2-3L94,8
			l-2.2,3L79,3z M52,16c0,2.1-1.9,4-4.1,4c-2,0-3.9-1.9-3.9-4c0-2.2,1.9-4,3.9-4C50.1,12,52,13.8,52,16z M65.8,40
			c13.7,0,17.8,11.8,17.8,11.8s-5.9-3.9-17.8-3.9S48,51.8,48,51.8S52.1,40,65.8,40z"/>
	</g>
</mask>
<g class="st3">
	<rect y="0" class="st4" width="130" height="80"/>
</g>
</svg>
