<?xml version="1.0" encoding="utf-8"?>
<!-- Generator: Adobe Illustrator 22.0.0, SVG Export Plug-In . SVG Version: 6.00 Build 0)  -->
<svg version="1.1" id="Camada_1" xmlns="http://www.w3.org/2000/svg" xmlns:xlink="http://www.w3.org/1999/xlink" x="0px" y="0px"
	 viewBox="0 0 24 24" style="enable-background:new 0 0 24 24;" xml:space="preserve">
<style type="text/css">
	.st0{fill:#E77002;}
	.st1{fill:none;}
</style>
<title>Menu_About</title>
<g id="Layer_2">
	<g id="Icons_Menu">
		<g id="About">
			<path id="Filled_Icons" class="st0" d="M21,9.3C20.9,9.1,20.8,9,20.6,9h-6.1l-2.2-5.7C12.3,3.1,12.1,3,11.9,3
				c-0.1,0-0.2,0.1-0.2,0.2L9.5,9H3.4C3.2,9,3,9.2,3,9.4c0,0.1,0.1,0.2,0.1,0.3l5,4.3L6,20.5c-0.1,0.2,0,0.4,0.2,0.5
				c0.1,0,0.2,0,0.3-0.1l5.4-4l5.4,4c0.2,0.1,0.4,0.1,0.5-0.1c0.1-0.1,0.1-0.2,0.1-0.3L15.8,14l5-4.3C21,9.6,21,9.4,21,9.3"/>
			<rect id="invisible_shape" y="0" class="st1" width="24" height="24"/>
		</g>
	</g>
</g>
</svg>
