<?xml version="1.0" encoding="utf-8"?>
<!-- Generator: Adobe Illustrator 22.0.0, SVG Export Plug-In . SVG Version: 6.00 Build 0)  -->
<svg version="1.1" id="Camada_1" xmlns="http://www.w3.org/2000/svg" xmlns:xlink="http://www.w3.org/1999/xlink" x="0px" y="0px"
	 viewBox="0 0 24 24" style="enable-background:new 0 0 24 24;" xml:space="preserve">
<style type="text/css">
	.st0{fill:#E77002;}
	.st1{fill:none;}
</style>
<title>Menu_Favorites</title>
<g id="Layer_2">
	<g id="Icons_Menu">
		<g id="Favorites">
			<path id="Filled_Icons" class="st0" d="M12,21c0,0,8-6.3,8-12.3s-7.1-6.4-8-0.5c-0.9-6-8-5.5-8,0.9S12,21,12,21z"/>
			<rect id="invisible_shape" y="0" class="st1" width="24" height="24"/>
		</g>
	</g>
</g>
</svg>
