<?xml version="1.0" encoding="utf-8"?>
<!-- Generator: Adobe Illustrator 22.0.0, SVG Export Plug-In . SVG Version: 6.00 Build 0)  -->
<svg version="1.1" id="Camada_1" xmlns="http://www.w3.org/2000/svg" xmlns:xlink="http://www.w3.org/1999/xlink" x="0px" y="0px"
	 viewBox="0 0 24 24" style="enable-background:new 0 0 24 24;" xml:space="preserve">
<style type="text/css">
	.st0{fill:#E77002;}
	.st1{fill:none;}
</style>
<title>Menu_Password</title>
<g id="Layer_2">
	<g id="Icons_Menu">
		<g id="Password">
			<path id="Filled_Icons" class="st0" d="M17,10.1V7c0-2.8-2.2-5-5-5S7,4.2,7,7v3.1c-2.7,2.8-2.7,7.2,0.1,9.9s7.2,2.7,9.9-0.1
				C19.7,17.2,19.7,12.8,17,10.1z M12,4c1.7,0,3,1.3,3,3v1.7c-1.9-0.9-4.1-0.9-6,0V7C9,5.3,10.3,4,12,4z M12,20c-2.8,0-5-2.2-5-5
				s2.2-5,5-5s5,2.2,5,5C17,17.8,14.8,20,12,20z M12,18c0.8,0,1.5-0.7,1.5-1.5c0-0.8-0.7-1.5-1.5-1.5s-1.5,0.7-1.5,1.5
				C10.5,17.3,11.2,18,12,18z"/>
			<rect id="invisible_shape" y="0" class="st1" width="24" height="24"/>
		</g>
	</g>
</g>
</svg>
